{
	"artifacts" : 
	[
		{
			"path" : "polygon.exe"
		},
		{
			"path" : "polygon.pdb"
		}
	],
	"backtrace" : 1,
	"backtraceGraph" : 
	{
		"commands" : 
		[
			"add_executable",
			"add_definitions",
			"include_directories"
		],
		"files" : 
		[
			"CMakeLists.txt"
		],
		"nodes" : 
		[
			{
				"file" : 0
			},
			{
				"command" : 0,
				"file" : 0,
				"line" : 42,
				"parent" : 0
			},
			{
				"command" : 1,
				"file" : 0,
				"line" : 6,
				"parent" : 0
			},
			{
				"command" : 2,
				"file" : 0,
				"line" : 40,
				"parent" : 0
			}
		]
	},
	"compileGroups" : 
	[
		{
			"compileCommandFragments" : 
			[
				{
					"fragment" : "-g  "
				},
				{
					"fragment" : "-std=gnu++11"
				}
			],
			"defines" : 
			[
				{
					"backtrace" : 2,
					"define" : "GTEST_LANGUAGE_CXX11"
				}
			],
			"includes" : 
			[
				{
					"backtrace" : 3,
					"path" : "C:/Users/rugli/Desktop/PoliTo/II  anno/Programmazione e calcolo scientifico/Solutions_bitbucket/5_OOPSAdvanced/C++/googletest/googletest"
				},
				{
					"backtrace" : 3,
					"path" : "C:/Users/rugli/Desktop/PoliTo/II  anno/Programmazione e calcolo scientifico/Solutions_bitbucket/5_OOPSAdvanced/C++/googletest/googletest/include"
				},
				{
					"backtrace" : 3,
					"path" : "C:/Users/rugli/Desktop/PoliTo/II  anno/Programmazione e calcolo scientifico/Solutions_bitbucket/5_OOPSAdvanced/C++/googletest/googlemock"
				},
				{
					"backtrace" : 3,
					"path" : "C:/Users/rugli/Desktop/PoliTo/II  anno/Programmazione e calcolo scientifico/Solutions_bitbucket/5_OOPSAdvanced/C++/googletest/googlemock/include"
				}
			],
			"language" : "CXX",
			"sourceIndexes" : 
			[
				0,
				3,
				4,
				5
			]
		}
	],
	"id" : "polygon::@6890427a1f51a3e7e1df",
	"link" : 
	{
		"commandFragments" : 
		[
			{
				"fragment" : "-g",
				"role" : "flags"
			},
			{
				"fragment" : "",
				"role" : "flags"
			},
			{
				"fragment" : "-lkernel32 -luser32 -lgdi32 -lwinspool -lshell32 -lole32 -loleaut32 -luuid -lcomdlg32 -ladvapi32",
				"role" : "libraries"
			}
		],
		"language" : "CXX"
	},
	"name" : "polygon",
	"nameOnDisk" : "polygon.exe",
	"paths" : 
	{
		"build" : ".",
		"source" : "."
	},
	"sourceGroups" : 
	[
		{
			"name" : "Source Files",
			"sourceIndexes" : 
			[
				0,
				3,
				4,
				5
			]
		},
		{
			"name" : "Header Files",
			"sourceIndexes" : 
			[
				1,
				2
			]
		}
	],
	"sources" : 
	[
		{
			"backtrace" : 1,
			"compileGroupIndex" : 0,
			"path" : "main.cpp",
			"sourceGroupIndex" : 0
		},
		{
			"backtrace" : 1,
			"path" : "test_shape.h",
			"sourceGroupIndex" : 1
		},
		{
			"backtrace" : 1,
			"path" : "shape.h",
			"sourceGroupIndex" : 1
		},
		{
			"backtrace" : 1,
			"compileGroupIndex" : 0,
			"path" : "shape.cpp",
			"sourceGroupIndex" : 0
		},
		{
			"backtrace" : 1,
			"compileGroupIndex" : 0,
			"path" : "googletest/googletest/src/gtest-all.cc",
			"sourceGroupIndex" : 0
		},
		{
			"backtrace" : 1,
			"compileGroupIndex" : 0,
			"path" : "googletest/googlemock/src/gmock-all.cc",
			"sourceGroupIndex" : 0
		}
	],
	"type" : "EXECUTABLE"
}
